## The world is coded to accept an eight wide by four tall world (32 tiles) 
## This can be modified in the code at any time.
# our first tile: 0
,,CNNNNV,,,CNNNNNV,,
,.M${{{/zxc.{{{$$BNN
,.$$${{BvmnM${$$$$$$
,.$$${$$$F$${{$$$F$F
,.$$F{$$$F$$${$$$$F{
,.$$F{$$$F{$${$$$$F{
,.$$${$$$F$$$$$$F$$F
,Z?$$$$$$F$$$$$$$$$$
,,.F$$$$$$$$${$$$<>>
,,Z>>>>>>>>>>>>>>X,,
#1
,,,,,,,,,,,,,,,,,,,,
NNNNNNNV,,,,,,,,,,,,
$$$$$F$BNNNNNNNNNNNN
FF$$F{F$$$$$$$$$$$$$
{{F$$F$$$$$$$$$$$$$$
{{{F$$$$$$$$F$$$$$$$
FFF$$$$$$$$$$$$$$$$$
$$$$$$$F<>>>>>>>>>>>
>>?$$$FF/,,,,,,,,,,,
,,Z>>>>>X,,,,,,,,,,,
#2
,,,,,,,,,,,,,,,,,,,,
,,,,,,CNNNNNNV,,,,,,
NNNV,,.$$FF$$/,,CNNN
$$$/,,.$$$$$$BNNM$$$
$$$/,,.$$<>?$$$$$$$$
$$$BNNM$$/,.$$$$F$$$
$$$$$$$$$/,.$$$$$F$$
>?$$F$$$$/,Z>>>>>>>>
,Z>>>>>>>X,,,,,,,,,,
,,,,,,,,,,,,,,,,,,,,
#3
,,,,,,,,,,,,,,,,,,,,
,,,,,,CNNNNNNNNNNNNN
NNNV,,.$$$$$$$$$$$$$
$$$BNNM$$$$$$$F$$$$$
$$$$$$$$$$$$$F{F$$$$
$$$$F$$$$$$$$$F$$$$$
$$$$$$$$$$$$$$$$$$$$
>>?$$$$$$$$$F$$$$$$$
,,.$$$$$$$$$$$$$$$$$
,,.$$$$$$$$$$$$$$$$$
#4
,,,,,,,,,,,,,,,,,,,,
NNNNNNNNNNNNNNNNNNNN
$$$$$$$$$$FFFFFFFFFF
$$$$$$$$$$FFFFFFFFFF
$$$$$$$$$$FFFF{FFFFF
$$$$$$$$$$FFF{FFFFFF
$$$$$$$$$$FFFFFFFFFF
$$$$$$$$$$FFFFFF{FFF
$$$$$$$$$$FFFFFFFFFF
$$$$$$$$$$FFFFFFFFFF
#5
,,,,,,,C^^^^^^^^^^^^
NNNNNNNM711111111111
FFFFFFFF311111111111
FFFFFFFF311=11111_11
FFFFFFFF3111=1111111
FFFFFFFF311111111111
FFFFFFFF311111111111
FFFFFFFF87111111_111
FFFFFFFFF31111111111
FFFFFFFFF31111111111
#6
^^^^^^^^^^^^^^^^^V,,
111___11111111111%V,
1111_111111111_111/,
11111_11____111111/,
11111111111_111111/,
11111_11111_1111_1/,
111111111111111111/,
111q111_____1_1111/,
111111111111111111/,
1111_1111111111111/,
#7
,C^^^^^^^^^^^^^^^^Mw
,.11q11111111111112w
,.11111111111-11112w
,.11111111111111112w
,.11111q11111111112w
,.11111111111111112w
,.11111111111111112w
,Z((((((((((((((()2w
,,,,,,,,,,,,,,,,,.2w
,,,,,,,,,,,,,,,,,.2w
#8
,,,,,,,,,,,,,,,,,,,,
,,,,,,,,,,,,,,,,,,,,
NNHHHHHHHHHHHHHHHHHH
oudaaaaaaaaaaaaaaaaa
Redaaaaaaaaaaaaaaaaa
Redaaaaa}aaaaaaaaaaa
Redaaaaaaaaaaaa'aaaa
Redaaaaaaaa'aaa'aaaa
Redaaaaaaaaaaaaaaaaa
Redaaaaaaaaaaaaaaaaa
#9
,,,,,,,,,,,,,,,,,,,,
,,,,,,,,,,,,,,,,,,,,
HHHHHHHHHHV,,,,,,,,,
aaaaaaaaaaGHHHHHHHHH
aaaaaaaaaaaaaaaaaaaa
aaaa}aaaaaaaaa}aaaaa
aaaaaaaaaaa}aaaaaaaa
aaaaaaaaaaaaaaaaaaaa
aaa'aaaaaaaaaaaaaaaa
aaaaaaa'aa}aaaaaaaaa
#10
,,,,,,,,,,,,,,,,,,,,
,,,,,,,,,CNNNNNNNNNN
,,,,,,,,,.$$$$$$$$$$
HHHHHHNNNM$$$$$$$$$$
aaaaaas$$$$$$$$$$$$$
aaa'aas$$$$$$${$$$$$
aaaaaas$$$$<>>?$$$$$
aaaaaas$$$$/,,.$$$$$
aaaaaas$$$$/,,.$$$$$
aaaaaas$$$$/,,.$$$$$
#11
,,.$$$$$$$$$$$$$$$$$
NNM$$$$$$$$$$$$$$$$$
$$$$$$$$$$$$$$FF$$$$
$$$$$$$$$$$$$$FF$$$$
$$$$$$F$$$$$F$$$$$$$
$$$$$$$$$$$$$$$$$$$$
$$$$$$$$$$$$$$F$$$$$
$$$$$$$$F$$$$$$$$$$$
$$$$$$$$$$$$$$$$$$$$
$$$$$$$$$$$$$$$$$$$$
#12
$$$$$$$$$$FFFFFFF{FF
$$$$$$$$$$FFFFFFFFFF
$$$$$$$$$$$FFFFFFFFF
$$$$$$$$$$$$$${FFFFF
$$$$$$$$$$${$FFFFFFF
$$$$$$$$$$$$$${FFFFF
$$$$$$$$$$$$$${$FFFF
$$$$$$$$$$$$$$$$$$$$
$$$$$$$$$$$$$$$$$$$$
$$$$$$$$$$$$$$$$$$$$
#13
FFFFFFFFF3111_111111
FFFFFFFFF31111111111
FFFFFFFFF89999997111
FFFFFFFFFFFFFFFF3111
FFFFFFF$$FFFFFFF3111
FFFFFFF$$FFFF{FF3111
FFF{$$$$$FFFFFFF3111
$$$$$$$$$FFFFFFF3111
$$$$~!!!!!!!!!!!5111
$$$$311111111_111111
#14
1111_11_1111111111/,
111111111111111111/,
111_111q11111_1111/,
1111_1111_111_1111/,
111111111111111111/,
1111111_1__11_1111/,
1111_1111111111111/,
1111111_1_111_1111/,
111111111111_11111/,
111111111111111111/,
#15
,,,,,,,,,,,,C^^^^&2w
,,,,,,,,,,,,.111112w
,,,,,,,,,,,,.1-1-12w
,,,,,,,,,,,,.111112w
,,,,,,,,,zxc.1q1-12w
,C^^^^^^^^m^&111112w
,.1-111-111-11-1-12w
,.11111111111111112w
,.-1-q-1-1-1-1-1-12w
,.11111111111111112w
#16
Redaaaaaaaaaaaaaaaaa
Redaaaaaaaaaaaaaaaaa
Redaaaaaaaaaaaa'aaaa
Redaaaa'aaaaaaaaaaaa
Redaaaaaaaaaa'aaaa'a
Redaaaaaaaaaaaaaaaaa
Redaaa}aaaaaaaaaKLLL
Redaaaaaaaaa'aaa/,,,
Redaaaaaaaaaaaaa/,,,
Redaaaa'aaaaaaaa/,,,
#17
aaaaaaaaaaaa'aaaaaaa
aaaaaaa'aa'aaaaaaaaa
aa}a}aaaaaaaaa}aaaaa
aa'a}aa'aa}aaa}aaaaa
'aaa'aa'aaaaaaaa'aaa
aa'aaaaaaa'aaa'aaaaa
LLLLLLLLLLLLLLLLLLLL
,,,,,,,,,,,,,,,,,,,,
,,,,,,,,,,,,,,,,,,,,
,,,,,,,,,,,,,,,,,,,,
#18
aaaaaas$$$$/,,.$$$$$
aaaaaas$$$$/,,.$$$$$
aaaaaas$$$$/,,.$$$$$
aaaaaas$$$$/,,.$$$$$
aaaaaas$$$$/,,Z>>>>>
aaaaaafSSSS/,,,,,,,,
LLL:aaaaaaa/,,,,,,,,
,,,.aaaaaaa/,,,,,,,,
,,,.aaaaaaa/,,,,,,,,
,,,.aaaaaaa/,,,,,,,,
#19
$$$$$$$$$$$$$$$$$$$$
$$$$$F$$$$$$$$$$$$$$
$$$$$$$$$$$F$$$$$$$$
$$$$$$$$$$F{F$$$$$$$
>>>?$$$$$$$F$$$$$$$$
,,,.$$$$$$$$$<>>>>>>
,,,.F$$$$$$$F/,,,,,,
,,,Z>>>>>>>>>X,,,,,,
,,,,,,,,,,,,,,,,,,,,
,,,,,,,,,,,,,,,,,,,,
#20
$$$$$$$$$$$$$$$$$$$$
$$$$$$$$$$$$$$$$FF$$
$$$$$$$$$$$$$$$FF{$$
$$$$$$$$$$$$$$$$$F<>
$$$$$$$$$$$$$$$$$$/,
>>>>>>>>>?$$$${$$$/,
,,,,,,,,,.$$$$F$$$/,
,,,,,,,,,.$$$${$$$/,
,,,,,,,,,.$$$$$$$$/,
,,,,,,,,,.$$$$$$$$/,
#21
$$$$3111111111111111
$$$$3111111111111111
$$$$311111111111q111
>>?!5111111111111111
,,.11111_11111111111
,,.111111111111_1111
,,.11q11111111111111
,,.111111111_1111111
,,.(()11111111111111
,,,,,.11111111111111
#22
111111111111111111/,
111111111111111111/,
111111111111111111%^
11111_11_11111111111
11111111111111111111
111111111q11111_1111
11111_11111111111111
111111111111_1111111
11111111111111111111
11111111111111111111
#23
,.11111111111111112w
,.-1_1-1-1-1-1-1-12w
^&11111111111111112w
1111-1-1-1-1-1-1-12w
1111111111111111112w
11-1-1-1-1-1q1_1-12w
1111111111111111112w
11_1-1-1-1-1-1-1-12w
1111111111111111112w
1111111111111111112w
#24
Redaaaa}aaaaaaaa/,,,
Redaaaaaaaaaaaaa/,,,
Redaa]aa]]}]}}]}/,,,
Redaaaaaaaaaaa}aGHHH
Reda]}]]a]a]aa}aaaaa
Redaaaaaaaaaa}aaaaaa
Redaa]a]a}aaaa]aaaaa
Redaaaaaaaaaaaaaaaaa
Redaa}aaaa}aaaaa}aaa
Re>LLLLLLLLLLLLLLLLL
#25
,,,,,,,,,,,,,,,,,,,,
,,,,,,,,,,,,,,,,,,,,
,CHHHHHV,,,CHHHHHHHH
HJaa]aa/zxc.aa]aaaaa
aaaaaaaGvbnJaa]aaaaa
aaaaa]aa]aaaa]aaaaaa
aaaaaa]]aaa]]aaaaaaa
aaaaaaaaaaaaaaaaaaaa
aaaaa]]]aaa]]]aaaaaa
LLLLLLLLLLLLLLLLLLLL
#26
,,,.aaaaaaa/,,,,,,,,
,,,.aaaaaaaGHHHHHHHV
HHHJa]aaaaaa]aaaaaa/
aaaaaaaaaaaaaaaaa]a/
aaaaa]aaaaaaa}aaaaa/
aa]aaaaaa]aaaaaaaaa/
aaaaaaaaa}aaaaaa]aa/
aaaaaaaa]aaaa}aaaaa/
aaaaaaaaaaaaaaaaaaa/
LLLLLLLLLLLLLLLLLLLX
#27
,,,,,,,,,,,,,,,,,,,,
,CNNNNNNNNNNNNNV,,,,
,.$$$$$$$$$$$$FBNNNN
,.$$$$$$$$$$$$$$$$$$
,.$$$$$$$$$$$$$$$$$$
,.$$$$$$$$$$$$$$$$$$
,.$$$$$$$$$$$$$$$$$$
,.$$$$$$$$$$$F<>?$$$
,Z>>>>>>>>>>>>X,.$$$
,,,,,,,,,,,,,,,,.ooo
#28
,,,,,,,,,.$$$$$$$$/,
,,,,,,,,,.$$$$$$$$/,
NNNNNmNNNM$$$$$$$$/,
$$$$[F$$$$$$$[$$$$/,
$$$$$F$$$$$$$$$$$$/,
$$$$$F$$$$$$$$$$$$/,
$$$$$$$$$$$$$$$$$$/,
$$$$$$$$$$$$$[$$$$/,
$$$$$$$$$$$$$$$$$$/,
oooooooooooooooooo/,
#29
,,,,,.11111111111111
,,,,,.11111111111111
,,,,,.1_111111111111
,,,,,.1111111111_111
,,,,,.111_1111111111
,,,,,.11111111111111
,,,,,.99999999999999
,,,,,.$$$$$$$$$$$$$$
,,,,,.oooooooooooooo
,,,,,.RRRRRRRRRRRRRR
#30
11111111111111111111
11111111111111111111
1111111111_111111111
11111111111111111111
11111_11111111111111
11111111111111111111
99999999999999999999
$$$$$$$$$$$$$$$$$$$$
oooooooooooooooooooo
RRRRRRRRRRRRRRRRRRRR
#31
1111111111111111112w
1111111111111111112w
1111111_11_11111112w
1111111_11111111112w
11_1111111111111160w
111111111111111112yp
999999999999999990wR
$$$$$$$$$$$$$$$$$$wR
oooooooooooooooooopR
RRRRRRRRRRRRRRRRRRRR
#32
""""""""""""""""""""
"``````````````````"
"``````````````````"
"``````````````````"
"``````````````````"
"``````````````````"
"``````````````````"
"``````````````````"
"``````````````````"
""""""""""""""""""""
#33
""""""""""""""""""""
"``````````````````"
"``````````````````"
"``````````````````"
"``````````````````"
"``````````````````"
"``````````````````"
"`"``````````````"`"
"``````````````````"
""""""""""""""""""""
#34
""""""""""""""""""""
""````"```"```"```""
""````"```"```"```""
""|||||||||||||||||"
""|||||||||||||||||"
""|||||||||||||||||"
""|||||||||||||||||"
"""|||"|||"|||"|||""
""""""""""""""""""""
""""""""""""""""""""
#35
""""""""""""""""""""
"""""""`````""""""""
"`""`""`````""`""`""
""""""""""""""""""""
""""""""""""""""""""
"``````````````````"
"``````````````````"
"``````````````````"
"``````````````````"
""""""""""""""""""""
